{
  "project_info": {
    "project_number": "311393809100",
    "firebase_url": "https://oozee-e1cfa.firebaseio.com",
    "project_id": "oozee-e1cfa",
    "storage_bucket": "oozee-e1cfa.appspot.com"
  },
  "client": [
    {
      "client_info": {
        "mobilesdk_app_id": "1:311393809100:android:486cb32d0ca14f8d",
        "android_client_info": {
          "package_name": "com.app.oozee"
        }
      },
      "oauth_client": [
        {
          "client_id": "311393809100-gpmslsj869phfekv7m1nlp94vicrua96.apps.googleusercontent.com",
          "client_type": 3
        }
      ],
      "api_key": [
        {
          "current_key": "AIzaSyBrku4JRasTQmprAfhzd1s2BlOzvzqq7u0"
        }
      ],
      "services": {
        "appinvite_service": {
          "other_platform_oauth_client": [
            {
              "client_id": "311393809100-gpmslsj869phfekv7m1nlp94vicrua96.apps.googleusercontent.com",
              "client_type": 3
            }
          ]
        }
      }
    }
  ],
  "configuration_version": "1"
}